{
  "table": {
    "en": {
      "LANGUAGE_NAME": "English",
      "LANGUAGE": "Language",
      "PAUSE_PAUSED": "Paused",
      "PAUSE_ARE_YOU_SURE": "Do you want to exit?",
      "PAUSE_PROGRESS_LOST": "All current progress will be lost.",
      "PAUSE_YES": "Exit",
      "PAUSE_NO": "Resume",
      "PAUSE_SELECT": "Select",
      "PAUSE_CLOSE": "Close",
      "PAUSE_RESUME": "Resume",
      "PAUSE_RESUME_DESCRIPTION": "",
      "PAUSE_SETTINGS": "Settings",
      "PAUSE_SETTINGS_DESCRIPTION": "",
      "PAUSE_RESTART": "Exit to Game Menu",
      "PAUSE_RESTART_DESCRIPTION": "",
      "PAUSE_BACK_TO_PACK": "Exit to Pack",
      "PAUSE_BACK_TO_PACK_DESCRIPTION": "",
      "PAUSE_EXIT_TO_DESKTOP": "Exit",
      "PAUSE_EXIT_TO_DESKTOP_DESCRIPTION": "",
      "PAUSE_CONFIRMATION_YES": "Yes",
      "PAUSE_CONFIRMATION_NO": "No",
      "PAUSE_CONFIRMATION_EXIT": "Do you want to exit?",
      "PAUSE_CONFIRMATION_RESTART": "Do you want to restart this game?",
      "PAUSE_CONFIRMATION_BACK_TO_PACK": "Do you want to pick another game?",
      "PAUSE_CHOOSE_ON_DEVICE": "Choose on your device",
      "BACK": "Back",
      "SELECT": "Select"
    },
    "fr": {
      "LANGUAGE_NAME": "Français",
      "LANGUAGE": "Langue",
      "PAUSE_PAUSED": "En pause",
      "PAUSE_ARE_YOU_SURE": "Voulez-vous quitter ?",
      "PAUSE_PROGRESS_LOST": "Les progrès actuels seront perdus.",
      "PAUSE_YES": "Quitter",
      "PAUSE_NO": "Continuer",
      "PAUSE_SELECT": "Sélectionner",
      "PAUSE_CLOSE": "Fermer",
      "PAUSE_RESUME": "Continuer",
      "PAUSE_RESUME_DESCRIPTION": "",
      "PAUSE_SETTINGS": "Paramètres",
      "PAUSE_SETTINGS_DESCRIPTION": "",
      "PAUSE_RESTART": "Retour au menu de jeu",
      "PAUSE_RESTART_DESCRIPTION": "",
      "PAUSE_BACK_TO_PACK": "Retour au pack",
      "PAUSE_BACK_TO_PACK_DESCRIPTION": "",
      "PAUSE_EXIT_TO_DESKTOP": "Quitter",
      "PAUSE_EXIT_TO_DESKTOP_DESCRIPTION": "",
      "PAUSE_CONFIRMATION_YES": "Oui",
      "PAUSE_CONFIRMATION_NO": "Non",
      "PAUSE_CONFIRMATION_EXIT": "Voulez-vous quitter ?",
      "PAUSE_CONFIRMATION_RESTART": "Voulez-vous relancer ce jeu ?",
      "PAUSE_CONFIRMATION_BACK_TO_PACK": "Voulez-vous choisir un autre jeu ?",
      "PAUSE_CHOOSE_ON_DEVICE": "Choisissez sur votre appareil",
      "BACK": "Retour",
      "SELECT": "Sélectionner"
    },
    "it": {
      "LANGUAGE_NAME": "Italiano",
      "LANGUAGE": "Lingua",
      "PAUSE_PAUSED": "Pausa",
      "PAUSE_ARE_YOU_SURE": "Vuoi uscire?",
      "PAUSE_PROGRESS_LOST": "Tutti i progressi andranno perduti.",
      "PAUSE_YES": "Esci",
      "PAUSE_NO": "Riprendi",
      "PAUSE_SELECT": "Seleziona",
      "PAUSE_CLOSE": "Chiudi",
      "PAUSE_RESUME": "Riprendi",
      "PAUSE_RESUME_DESCRIPTION": "",
      "PAUSE_SETTINGS": "Impostazioni",
      "PAUSE_SETTINGS_DESCRIPTION": "",
      "PAUSE_RESTART": "Torna al menu di gioco",
      "PAUSE_RESTART_DESCRIPTION": "",
      "PAUSE_BACK_TO_PACK": "Torna al pacchetto",
      "PAUSE_BACK_TO_PACK_DESCRIPTION": "",
      "PAUSE_EXIT_TO_DESKTOP": "Esci",
      "PAUSE_EXIT_TO_DESKTOP_DESCRIPTION": "",
      "PAUSE_CONFIRMATION_YES": "Sì",
      "PAUSE_CONFIRMATION_NO": "No",
      "PAUSE_CONFIRMATION_EXIT": "Vuoi uscire?",
      "PAUSE_CONFIRMATION_RESTART": "Vuoi riavviare la partita?",
      "PAUSE_CONFIRMATION_BACK_TO_PACK": "Vuoi scegliere un altro gioco?",
      "PAUSE_CHOOSE_ON_DEVICE": "Scegli sul tuo dispositivo",
      "BACK": "Indietro",
      "SELECT": "Seleziona"
    },
    "de": {
      "LANGUAGE_NAME": "Deutsch",
      "LANGUAGE": "Sprache",
      "PAUSE_PAUSED": "Pause",
      "PAUSE_ARE_YOU_SURE": "Möchtest du das Spiel verlassen?",
      "PAUSE_PROGRESS_LOST": "Jeglicher Spielfortschritt geht verloren.",
      "PAUSE_YES": "Verlassen",
      "PAUSE_NO": "Fortsetzen",
      "PAUSE_SELECT": "Auswählen",
      "PAUSE_CLOSE": "Schließen",
      "PAUSE_RESUME": "Fortsetzen",
      "PAUSE_RESUME_DESCRIPTION": "",
      "PAUSE_SETTINGS": "Einstellungen",
      "PAUSE_SETTINGS_DESCRIPTION": "",
      "PAUSE_RESTART": "Zurück zum Spielmenü",
      "PAUSE_RESTART_DESCRIPTION": "",
      "PAUSE_BACK_TO_PACK": "Zurück zur Titelauswahl",
      "PAUSE_BACK_TO_PACK_DESCRIPTION": "",
      "PAUSE_EXIT_TO_DESKTOP": "Verlassen",
      "PAUSE_EXIT_TO_DESKTOP_DESCRIPTION": "",
      "PAUSE_CONFIRMATION_YES": "Ja",
      "PAUSE_CONFIRMATION_NO": "Nein",
      "PAUSE_CONFIRMATION_EXIT": "Möchtest du das Spiel verlassen?",
      "PAUSE_CONFIRMATION_RESTART": "Möchtest du das Spiel neu starten?",
      "PAUSE_CONFIRMATION_BACK_TO_PACK": "Möchtest du ein anderes Spiel auswählen?",
      "PAUSE_CHOOSE_ON_DEVICE": "Wähle auf deinem Gerät",
      "BACK": "Zurück",
      "SELECT": "Auswählen"
    },
    "es": {
      "LANGUAGE_NAME": "Español (España)",
      "LANGUAGE": "Idioma",
      "PAUSE_PAUSED": "En pausa",
      "PAUSE_ARE_YOU_SURE": "¿Quieres salir?",
      "PAUSE_PROGRESS_LOST": "Se perderá el progreso actual.",
      "PAUSE_YES": "Salir",
      "PAUSE_NO": "Reanudar",
      "PAUSE_SELECT": "Seleccionar",
      "PAUSE_CLOSE": "Cerrar",
      "PAUSE_RESUME": "Reanudar",
      "PAUSE_RESUME_DESCRIPTION": "",
      "PAUSE_SETTINGS": "Ajustes",
      "PAUSE_SETTINGS_DESCRIPTION": "",
      "PAUSE_RESTART": "Salir al menú del juego",
      "PAUSE_RESTART_DESCRIPTION": "",
      "PAUSE_BACK_TO_PACK": "Salir al Pack",
      "PAUSE_BACK_TO_PACK_DESCRIPTION": "",
      "PAUSE_EXIT_TO_DESKTOP": "Salir",
      "PAUSE_EXIT_TO_DESKTOP_DESCRIPTION": "",
      "PAUSE_CONFIRMATION_YES": "Sí",
      "PAUSE_CONFIRMATION_NO": "No",
      "PAUSE_CONFIRMATION_EXIT": "¿Quieres salir?",
      "PAUSE_CONFIRMATION_RESTART": "¿Quieres reiniciar este juego?",
      "PAUSE_CONFIRMATION_BACK_TO_PACK": "¿Quieres elegir otro juego?",
      "PAUSE_CHOOSE_ON_DEVICE": "Elegir en el dispositivo",
      "BACK": "Atrás",
      "SELECT": "Seleccionar"
    },
    "es-XL": {
      "LANGUAGE_NAME": "Español (internacional)",
      "LANGUAGE": "Idioma",
      "PAUSE_PAUSED": "En pausa",
      "PAUSE_ARE_YOU_SURE": "¿Quieres salir?",
      "PAUSE_PROGRESS_LOST": "Se perderá el progreso actual.",
      "PAUSE_YES": "Salir",
      "PAUSE_NO": "Reanudar",
      "PAUSE_SELECT": "Seleccionar",
      "PAUSE_CLOSE": "Cerrar",
      "PAUSE_RESUME": "Reanudar",
      "PAUSE_RESUME_DESCRIPTION": "",
      "PAUSE_SETTINGS": "Ajustes",
      "PAUSE_SETTINGS_DESCRIPTION": "",
      "PAUSE_RESTART": "Salir al menú del juego",
      "PAUSE_RESTART_DESCRIPTION": "",
      "PAUSE_BACK_TO_PACK": "Salir al Pack",
      "PAUSE_BACK_TO_PACK_DESCRIPTION": "",
      "PAUSE_EXIT_TO_DESKTOP": "Salir",
      "PAUSE_EXIT_TO_DESKTOP_DESCRIPTION": "",
      "PAUSE_CONFIRMATION_YES": "Sí",
      "PAUSE_CONFIRMATION_NO": "No",
      "PAUSE_CONFIRMATION_EXIT": "¿Quieres salir?",
      "PAUSE_CONFIRMATION_RESTART": "¿Quieres reiniciar este juego?",
      "PAUSE_CONFIRMATION_BACK_TO_PACK": "¿Quieres elegir otro juego?",
      "PAUSE_CHOOSE_ON_DEVICE": "Elegir en el dispositivo",
      "BACK": "Atrás",
      "SELECT": "Seleccionar"
    },
    "ru": {
      "LANGUAGE_NAME": "Русский",
      "LANGUAGE": "Язык",
      "PAUSE_PAUSED": "Пауза",
      "PAUSE_ARE_YOU_SURE": "Вы хотите выйти?",
      "PAUSE_PROGRESS_LOST": "Текущий прогресс будет потерян.",
      "PAUSE_YES": "Выйти",
      "PAUSE_NO": "Продолжить",
      "PAUSE_SELECT": "Выбрать",
      "PAUSE_CLOSE": "Закрыть",
      "PAUSE_RESUME": "Продолжить",
      "PAUSE_RESUME_DESCRIPTION": "",
      "PAUSE_SETTINGS": "Настройки",
      "PAUSE_SETTINGS_DESCRIPTION": "",
      "PAUSE_RESTART": "Выйти в меню игры",
      "PAUSE_RESTART_DESCRIPTION": "",
      "PAUSE_BACK_TO_PACK": "Выйти в общее меню",
      "PAUSE_BACK_TO_PACK_DESCRIPTION": "",
      "PAUSE_EXIT_TO_DESKTOP": "Выйти из игры",
      "PAUSE_EXIT_TO_DESKTOP_DESCRIPTION": "",
      "PAUSE_CONFIRMATION_YES": "Да",
      "PAUSE_CONFIRMATION_NO": "Нет",
      "PAUSE_CONFIRMATION_EXIT": "Вы хотите выйти?",
      "PAUSE_CONFIRMATION_RESTART": "Вы хотите выйти в меню игры?",
      "PAUSE_CONFIRMATION_BACK_TO_PACK": "Вы хотите выбрать другую игру?",
      "PAUSE_CHOOSE_ON_DEVICE": "Выберите на устройстве",
      "BACK": "Назад",
      "SELECT": "Выбрать"
    }
  }
}